<?xml version="1.0" standalone="no"?>
<!DOCTYPE svg PUBLIC "-//W3C//DTD SVG 1.1//EN" "http://www.w3.org/Graphics/SVG/1.1/DTD/svg11.dtd">
<svg xmlns="http://www.w3.org/2000/svg"><defs><font id="flaticon" horiz-adv-x="512"><font-face units-per-em="512" ascent="448" descent="-64" x-height="240" cap-height="480"/><missing-glyph horiz-adv-x="512"/><glyph unicode="&#xE000;" glyph-name="cellphone" horiz-adv-x="512" d="M465.72012743094 90.736912177262l-16.152917122343 16.152917122343c52.792163948457 52.792163948457 52.779991441206 138.69354762018 -0.024345014502401 191.48571156864l16.177262136846 16.165089629594C527.42256668727 252.85036374875 527.42256668727 152.4393514336 465.72012743094 90.736912177262zM437.77205078218 286.60472635633l-16.152917122343 -16.165089629594c37.369597261186 -37.393942275688 37.369597261186 -98.219961009938 0 -135.58955827112l16.152917122343 -16.189434644097C484.06409585849 164.97703390233 484.06409585849 240.31268128002 437.77205078218 286.60472635633zM408.92320859683 257.78022918549l-16.152917122343 -16.165089629594c21.520992820123 -21.484475298369 21.520992820123 -56.46826113832 0 -77.940563929438l16.165089629594 -16.165089629594C439.34230421758 177.90423660311 439.34230421758 227.37330607199 408.92320859683 257.78022918549zM46.279872569065 90.736912177262l16.152917122343 16.152917122343c-52.792163948457 52.792163948457 -52.779991441206 138.69354762018 0.024345014502401 191.48571156864l-16.177262136846 16.165089629594C-15.422566687271 252.85036374875 -15.422566687271 152.4393514336 46.279872569065 90.736912177262zM74.227949217821 118.67281631877l16.152917122343 16.165089629594c-37.369597261186 37.369597261186 -37.369597261186 98.207788502687 0 135.60173077837l-16.152917122343 16.165089629594C27.935904141505 240.31268128002 27.935904141505 164.97703390233 74.227949217821 118.67281631877zM103.06461889592 147.49731348961 l16.165089629594 16.165089629594c-21.49664780562 21.484475298369 -21.49664780562 56.456088631068 0.012172507251201 77.940563929438l-16.165089629594 16.165089629594C72.657695782416 227.37330607199 72.657695782416 177.90423660311 103.06461889592 147.49731348961zM362.07122818696 349.92610907708v-315.8643906614 c0 -13.548000570586 -11.101326613095 -24.649327183681 -24.661499690932 -24.649327183681H174.61461651847c-13.560173077837 0 -24.661499690932 11.101326613095 -24.661499690932 24.649327183681V349.92610907708c0 13.560173077837 11.101326613095 24.661499690932 24.661499690932 24.661499690932h162.79511197756 C350.96990157387 374.58760876801 362.07122818696 363.48628215491 362.07122818696 349.92610907708zM226.96857020589 353.82131139746c0 -1.6432884789121 1.3389757976321 -2.9822642765441 2.9944367837953 -2.9822642765441h52.073986020636c1.6554609861633 0 2.9822642765441 1.3389757976321 2.9822642765441 2.9822642765441 c0 1.6554609861633 -1.3268032903809 2.9944367837953 -2.9822642765441 2.9944367837953h-52.073986020636C228.31971851077 356.81574818126 226.96857020589 355.47677238362 226.96857020589 353.82131139746zM268.34292235272 34.061718415672c0 6.8287765679235 -5.5263182920451 12.342922352717 -12.342922352717 12.342922352717 c-6.8166040606723 0 -12.330749845466 -5.5263182920451 -12.330749845466 -12.342922352717c0 -6.8044315534211 5.5141457847939 -12.318577338215 12.330749845466 -12.318577338215C262.81660406067 21.743141077457 268.34292235272 27.257286862251 268.34292235272 34.061718415672zM344.90799296277 335.4773429699 H167.10417954448v-280.41804954591h177.80381341829V335.4773429699z"/><glyph unicode="&#xE001;" glyph-name="circle105" horiz-adv-x="512" d="M256 -64C114.8405106383 -64 0 50.840510638298 0 192S114.8405106383 448 256 448s256 -114.8405106383 256 -256S397.1594893617 -64 256 -64zM256 381.62519148936 c-104.55693617021 0 -189.62519148936 -85.068255319149 -189.62519148936 -189.62519148936c0 -104.5514893617 85.068255319149 -189.62519148936 189.62519148936 -189.62519148936c104.5514893617 0 189.62519148936 85.07370212766 189.62519148936 189.62519148936 C445.62519148936 296.55693617021 360.5514893617 381.62519148936 256 381.62519148936z"/><glyph unicode="&#xE002;" glyph-name="circle7" horiz-adv-x="512" d="M256 448C114.60266666667 448 0 333.39733333333 0 192s114.60266666667 -256 256 -256s256 114.60266666667 256 256S397.39733333333 448 256 448zM256 -21.333333333333c-117.632 0 -213.33333333333 95.701333333333 -213.33333333333 213.33333333333 s95.701333333333 213.33333333333 213.33333333333 213.33333333333s213.33333333333 -95.701333333333 213.33333333333 -213.33333333333S373.632 -21.333333333333 256 -21.333333333333z"/><glyph unicode="&#xE003;" glyph-name="circular180" horiz-adv-x="512" d="M256 448C114.61174468085 448 0 333.38280851064 0 192s114.61174468085 -256 256 -256s256 114.61719148936 256 256S397.38825531915 448 256 448zM256 28.595744680851c-90.101106382979 0 -163.40425531915 73.30314893617 -163.40425531915 163.40425531915 s73.30314893617 163.40425531915 163.40425531915 163.40425531915s163.40425531915 -73.30314893617 163.40425531915 -163.40425531915S346.10110638298 28.595744680851 256 28.595744680851z"/><glyph unicode="&#xE004;" glyph-name="football92" horiz-adv-x="512" d="M306.08690911259 223.30677161866c2.1579220867728 -1.8133524155145 4.0465128165811 -4.0595977408061 5.5098435090768 -7.0091577431913l52.847828124068 21.86817961103c4.7236576452248 1.9518345302291 6.9666317394601 7.3657219283226 5.0082547471185 12.087198752843L289.9979043676 442.28297852403 C288.52475998194 445.84316832358 285.0736112176 448 281.44690638657 448c-1.1798240009541 0 -2.3858178503582 -0.22026289112082 -3.5394720028623 -0.70113385638955L147.55323843356 393.34972356394c-4.7171151831123 -1.9463824784687 -6.965541329108 -7.3602698765621 -5.0049835160623 -12.082837111435 l61.466431546935 -148.54551185395c-4.0748634857352 -4.1337456447477 -8.7483622547642 -9.0231456634891 -14.638758976718 -15.052024500158c-21.774404320751 -22.265088979188 -21.356777155903 -35.619344561152 -27.459803896513 -73.286479763517 c-4.0683210236227 -25.078347687563 -14.981147827272 -33.905219487678 -9.8932931244516 -48.771874227981c3.3104858289248 -8.9620826837725 8.6524061437808 -15.656111835212 12.407779396356 -19.628476747851c0.57028461413956 -0.58555035906872 1.0467939379999 -1.0838678899708 1.5276649032687 -1.5516539310145 c1.4022677127791 -1.3717362229208 2.3443822569791 -2.1764590627582 2.6104423828874 -2.3945411331749c0.78727627420413 -0.78182422244371 1.5560155724228 -1.5505635206624 2.4119876988082 -2.3890890814145l-0.0087232828166662 -0.0098136931687495l2.9015819468936 -2.8394285568249l1.558196393127 -1.5211224411562l2.8841353812603 -2.8361573257686 l1.5505635206624 -1.5211224411562l1.5603772138312 -1.5211224411562l-0.037073951970832 -0.06651503147708c33.918304411903 -33.790726400709 38.076039084396 -41.013604572908 62.053072316355 -67.806077333947c25.528687162974 -28.512049886274 36.622522085069 -55.530237590193 36.622522085069 -55.530237590193 s82.710896436573 27.660439401297 74.391065450178 41.630776832188c-8.3252830381558 13.973608661947 -11.169073236389 34.791723103921 -11.169073236389 34.791723103921c-2.6398834623936 48.836208438754 -41.053949755935 110.16088663992 -38.20906914735 110.16088663992 c0.20172591513541 0 0.60735856611039 -0.30095325717499 1.2539719048958 -0.9388433131437c5.6755858825935 -5.6592297273122 9.6348658710079 -8.7450910237079 14.249482481024 -8.7450910237079c3.2679598251936 0 6.8554098835476 1.5560155724228 11.606327787574 4.8414219632498 c11.435133362297 7.90874628366 -11.352262175539 32.418990177788 -11.352262175539 32.418990177788s5.2470546142247 1.4197142784124 12.235494560726 11.876749554891c6.9818974843892 10.465758559295 -35.955190949594 32.753746155878 -35.955190949594 32.753746155878 s18.317803504647 3.7073951970832 10.801604947737 19.390767291097c-0.082871186758329 0.17991770809374 -0.17446565633332 0.30858612963957 -0.26606012590832 0.47650932386039c-1.6955880974895 3.3464693705436 -3.7804526906727 5.4793120192185 -6.0048898089226 6.7987085452393 c-2.6300697692249 1.5560155724228 -5.4575038121768 2.0270728445228 -8.1137434298517 2.0270728445228c-3.4129844020207 0 -6.5195634951059 -0.71858042202288 -8.5608116742058 -0.71858042202288c-1.0446131172958 0 -1.8046291326978 0.18755058055832 -2.1753686524061 0.76001601540205 c-2.1197577244499 3.3497406015998 -5.3877175496435 12.335812313118 -5.3877175496435 12.335812313118c-5.878402208081 16.129349928016 -12.851576409654 20.450646153322 -18.64383619992 20.450646153322c-6.6656784822851 0 -11.76116605757 -5.7355584519581 -11.76116605757 -5.7355584519581 s-19.611030182218 -12.512458790156 -9.6490412055849 -55.699251194766c0.064334210772914 -0.25079438097915 0.087232828166662 -0.47214768245206 0.14611498717916 -0.72730370483955c0.64443251808122 -2.7249354698561 1.2343445185583 -5.3266545699268 1.7566510772062 -7.80406688986 c7.9338257217579 -37.31384224829 2.9964476475249 -46.945436888241 2.9964476475249 -46.945436888241c-3.4849514852582 -2.9920860061165 -6.7125661274247 -4.190446983056 -9.637046691712 -4.190446983056c-6.1073883820185 0 -10.896470648368 5.1609121964102 -13.989964817228 9.7886137306516 c-0.30531489858332 0.92248715786246 -0.59863528329372 1.8918619608645 -0.87341869201871 2.880864150204c-0.2475231499229 0.88214197483537 -0.47650932386039 1.8035387223457 -0.69459139427705 2.7216642387999c-3.2505132595603 13.826403264416 -3.8404252600373 31.850886384353 -3.8829512637686 33.306584204384l1.5222128515083 2.2059001422645 c1.5342073653812 3.1589187899853 3.3802720914582 5.7508241968872 5.2655915902102 8.0799407089371l2.0445194101562 -4.9548246398664c1.4698731546083 -3.561280209904 4.9221123293039 -5.7148406552685 8.5509979810371 -5.7148406552685c1.1820048216583 0 2.3814562089499 0.23116699464166 3.535110361454 0.69895303568538l1.1122185591249 0.47214768245206 c-0.56374215202706 2.6922231592936 -1.1711007181374 5.4749503778102 -1.8809578573437 8.4801213081517c0 0.015265744929166 -0.0087232828166662 0.032712310562498 -0.0087232828166662 0.041435593379165l-2.7576477804186 -1.1362075868708c-0.050158876195831 0 -0.46996686174789 0.0065424621124997 -0.64007087667289 0.42635044766456l-3.3475597808957 8.0908448124579 h-0.0087232828166662l-0.69459139427705 1.675960711152l-1.2921362672187 3.1349297622394L210.66946084319 239.18641757605c-0.017446565633332 -0.017446565633332 -0.039254772674998 -0.026169848449999 -0.047978055491664 -0.043616414083331L150.45482038045 384.54575038122 c-0.14611498717916 0.34893131266665 0.026169848449999 0.75129273258538 0.37619157146873 0.89740771976454L281.18411749172 439.39011985995c0.092684879927079 0.034893131266665 0.17555606668541 0.050158876195831 0.2671505362604 0.050158876195831c0.052339696899997 0 0.47214768245206 -0.0065424621124997 0.64661333878539 -0.4307120890729 l79.463654408069 -192.02562464327c0.14393416647499 -0.35111213337082 -0.026169848449999 -0.75129273258538 -0.37619157146873 -0.89740771976454L306.08690911259 223.30677161866zM230.69811819026 225.8932249738c-0.088323238518746 -0.10467939379999 -0.12975883189791 -0.24207109816249 -0.22353412217707 -0.33475597808957c0.034893131266665 -0.15483826999583 0.067605441829163 -0.51358327583122 0.10904103520833 -0.96065152018537 C230.63051274843 225.01871587143 230.64795931406 225.47123616755 230.69811819026 225.8932249738zM240.72880301907 250.61282765553c0.30204366752707 0.33475597808957 0.58118871766039 0.63352841456039 0.86469540920204 0.91594469574996c-0.18755058055832 -0.11776431802499 -0.36637787829998 -0.2475231499229 -0.55501886921039 -0.36964910935623 c-0.034893131266665 -0.056701338308331 -0.034893131266665 -0.11122185591249 -0.058882159012497 -0.17882729774166C240.9010878547 250.87016449862 240.80077010231 250.74149607708 240.72880301907 250.61282765553zM259.56346103061 268.42577116717c2.5384752996499 -3.338836498079 6.2218814689872 -5.315750466406 10.330547675637 -5.5534599231601c0.26606012590832 -0.017446565633332 0.51576409653539 -0.13084924224999 0.79927078807704 -0.13084924224999 c1.8831386780478 0 3.744469149054 0.3783723921729 5.5665448473851 1.1296651247583c7.6514094405684 3.1589187899853 10.81905151337 11.197423905543 7.541277995008 19.108351009907c-3.2112584868853 7.7299189859184 -11.298832068287 11.297741657935 -18.83247719083 8.1933433855538 c-3.665959603704 -1.5167607997478 -6.4497772325726 -4.3169345838977 -7.829146327958 -7.8793052041538c-1.3499280158791 -3.4980364094832 -1.2496102634874 -7.4900287084601 0.29877243647082 -11.223593753993C257.99654135466 270.71999454795 258.73256834232 269.51181987784 259.56346103061 268.42577116717zM272.15551977647 299.72490991336L240.23920877099 383.69523030659L217.08870658591 374.1192465946L253.84425873393 292.14655796638Z"/><glyph unicode="&#xE005;" glyph-name="gross6" horiz-adv-x="512" d="M256 360.98621290336c93.180889257111 0 168.98621290336 -75.805323646252 168.98621290336 -168.98621290336S349.18088925711 23.013787096637 256 23.013787096637S87.013787096637 98.819110742889 87.013787096637 192S162.81911074289 360.98621290336 256 360.98621290336 M256 448C114.61347269135 448 0 333.38108894695 0 192s114.61347269135 -256 256 -256c141.38108894695 0 256 114.61891105305 256 256S397.38108894695 448 256 448 L256 448z"/><glyph unicode="&#xE006;" glyph-name="id12" horiz-adv-x="512" d="M256.00066691155 164.32517148224c26.936557433849 0 48.767240054291 21.836017912827 48.767240054291 48.768573877387c0 26.933889787656 -21.829348797345 48.77524299287 -48.767240054291 48.77524299287 c-26.937891256946 0 -48.769907700484 -21.841353205213 -48.769907700484 -48.77524299287C207.23075921106 186.16118939506 229.0627756546 164.32517148224 256.00066691155 164.32517148224zM371.26165597264 386.77618604748H295.45515410606V434.84850426849c0 7.2640005835476 -5.8888289710545 13.151495731506 -13.152829554602 13.151495731506h-52.604649102926c-7.2626667604511 0 -13.151495731506 -5.887495147958 -13.151495731506 -13.151495731506v-48.07365204411h-75.806501866571 c-28.427771655738 0 -51.46689800161 -23.043127815161 -51.46689800161 -51.469565647803v-347.83572092878c0 -28.426437832642 23.039126345872 -51.469565647803 51.46689800161 -51.469565647803h230.52197812218 c28.426437832642 0 51.46689800161 23.044461638258 51.46689800161 51.469565647803V335.30528657658C422.72855397425 363.73305823232 399.68809380528 386.77618604748 371.26165597264 386.77618604748zM238.95707538445 428.91699295835h34.088516877291 c4.6283661448605 0 8.3790766922229 -3.7520443704589 8.3790766922229 -8.3830781615124c0 -4.6310337910535 -3.7507105473624 -8.3844119846089 -8.3790766922229 -8.3844119846089h-34.088516877291c-4.6283661448605 0 -8.3817443384159 3.7533781935554 -8.3817443384159 8.3844119846089 C230.57533104604 425.16494858789 234.32870923959 428.91699295835 238.95707538445 428.91699295835zM212.73144566104 369.3084387757h3.8147340559945v-3.4292591811056c0 -7.2640005835476 5.8888289710545 -13.151495731506 13.151495731506 -13.151495731506h52.603315279829 c7.2640005835476 0 13.152829554602 5.887495147958 13.152829554602 13.151495731506v3.4292591811056h3.813400232898c7.8948989081929 0 14.290580655918 -6.3983493939181 14.290580655918 -14.290580655918s-6.3956817477251 -14.290580655918 -14.290580655918 -14.290580655918H212.73144566104 c-7.8935650850964 0 -14.290580655918 6.3996832170146 -14.290580655918 14.290580655918C198.44086500512 362.91008938178 204.83788057594 369.3084387757 212.73144566104 369.3084387757zM167.57886619827 274.5243018921h176.84360142657V107.08815476516h-20.358141921904 l2.6356344386871 34.244574179582c0.35879841295893 4.6230308524745 -1.2324525411675 9.1847058425099 -4.3829426951042 12.588622384782c-3.1504901539367 3.4025827191755 -7.5801166574185 5.3352923860063 -12.212484271568 5.3352923860063h-108.20506488059c-4.6363690834395 0 -9.0619941176317 -1.9327096668308 -12.213818094665 -5.3352923860063 c-3.1504901539367 -3.4052503653685 -4.7390734618701 -7.9669253554039 -4.3829426951042 -12.588622384782l2.6343006155906 -34.244574179582h-20.356808098807L167.57886619827 274.5243018921L167.57886619827 274.5243018921zM342.34437124048 9.6510437426242H169.65696258261 c-8.876592707218 0 -16.075235959037 7.1973094287225 -16.075235959037 16.079237428327c0 8.8779265303145 7.1973094287225 16.076569782134 16.075235959037 16.076569782134h172.68874248096c8.873925061025 0 16.075235959037 -7.1973094287225 16.075235959037 -16.076569782134 C358.41960719952 16.85102081754 351.2209639477 9.6510437426242 342.34437124048 9.6510437426242z"/><glyph unicode="&#xE007;" glyph-name="key18" horiz-adv-x="512" d="M510.70588004781 97.744930148716L390.19221349217 311.55561651351c-0.98312988616102 1.7455571448165 -2.4678566530164 3.1500284107608 -4.2635734859024 4.0428708583968l-68.096792523071 33.998236573466 c-1.8960362090248 0.94300213570547 -4.0027431079413 1.1837686384388 -6.0492583811744 0.85271469718048c-12.008229323824 26.865528929992 -32.674020808433 48.915727805318 -66.672257381899 48.915727805318c-38.823598565746 0 -62.83002527578 -18.609244273762 -77.035248937046 -41.652604972863 c-6.9019730783549 1.5348864549249 -14.044712659443 2.4076650273331 -21.398122930423 2.4076650273331c-54.272782491134 0 -98.443403805083 -44.160589376335 -98.443403805083 -98.433371867469c0 -24.247193212767 8.8582009130631 -46.437839214687 23.444638203656 -63.60248447205l-68.55826165331 -157.10014303349 c-8.5371789094187 -19.572310284695 1.0232576366166 -42.695926484707 21.317867429512 -51.534063522542l3.0497090346219 -1.3342477026471c5.3068949977467 -2.3073456511942 10.924780061524 -3.491114289633 16.522601250073 -3.491114289633c4.6748829280718 0 9.3297019809158 0.81258694672493 13.793914219096 2.4277289025609 c9.9717459882046 3.6415933538413 17.766561514196 10.924780061524 21.949879499187 20.475184669945L90.287438524992 31.664557086036l-3.3005074749691 1.7856848952721c-4.8755216803496 2.6283676548386 -6.711366263691 8.6976899112409 -4.0829986088524 13.583243529204s8.7177537864686 6.711366263691 13.583243529204 4.0829986088524 l1.8559084585693 -1.0031937613888l12.600113643043 28.881948390383l-4.5946274271607 2.4678566530164c-4.8755216803496 2.6383995924525 -6.711366263691 8.7177537864686 -4.0829986088524 13.583243529204c2.6283676548386 4.8855536179634 8.7277857240825 6.7013343260772 13.583243529204 4.0829986088524l3.1500284107608 -1.705429394361 l11.968101573368 27.447381311597l-0.99316182377491 0.53169269353606c-4.8755216803496 2.6283676548386 -6.711366263691 8.6976899112409 -4.0829986088524 13.583243529204c2.5380802163137 4.7250426161412 8.3064443442992 6.4806316985716 13.091678586124 4.2535415482885l8.7478495993103 20.043811352548 c53.781217548053 0.57182044399161 97.390050355624 44.461547504751 97.390050355624 98.383212179399c0 39.656249387699 -23.625213080706 73.825028900602 -57.493034465192 89.40462801497c10.924780061524 15.589631051982 28.601054137195 28.209808570253 57.493034465192 28.209808570253 c25.430961851206 0 40.258165644532 -17.626114387601 48.925759742932 -38.051139369477l-35.864176969649 -20.224386229598c-3.0296451593942 -1.705429394361 -4.9557771812607 -4.8654897427357 -5.0962243078551 -8.3465720947548l-2.9192938456414 -74.025667652879 c-0.080255500911104 -1.8659403961832 0.37118169171385 -3.7017849795247 1.2840880145777 -5.3269588729745l120.52369849325 -213.80065442718c1.8458765209554 -3.2704116621275 5.2366714344495 -5.106256245469 8.7478495993103 -5.106256245469c1.6653016439054 0 3.3606991006525 0.41130944216941 4.9156494308051 1.2941199521915 l121.26606187668 68.337559025805c2.3073456511942 1.3041518898054 4.0127750455552 3.4810823520191 4.7350745537551 6.0492583811744C512.34108587887 92.678801653702 512.01003193761 95.417520622294 510.70588004781 97.744930148716zM61.365362384153 15.593393028587 c-1.9562278347082 -4.4842761134079 -5.6680447518467 -7.9151987773576 -10.443247056057 -9.6607559221741c-4.9457452436468 -1.8258126457276 -10.413151243216 -1.5950780806082 -15.419088112546 0.59188431921939l-3.0597409722358 1.3342477026471c-10.142288927641 4.4140525501107 -15.037874483218 15.679918490507 -10.924780061524 25.119971785175 l65.679095558125 150.48909614593c11.486568567902 -8.7478495993103 24.869173344828 -15.118129984129 39.505770323491 -18.147775143523L61.365362384153 15.593393028587zM225.03642455473 261.7069185101c0 -43.217587240629 -35.161941336677 -78.369496639693 -78.369496639693 -78.369496639693 c-2.7888786566609 0 -5.5576934380939 0.16051100182221 -8.2763485314576 0.45143719262496l-3.4108587887219 0.52166075592217c-14.967650919921 2.2571859631248 -28.540862511511 8.7077218488548 -39.495738385877 18.177870956365c-16.612888688598 14.385798538315 -27.186550933636 35.573250778847 -27.186550933636 59.218527734781 c0 43.217587240629 35.161941336677 78.369496639693 78.369496639693 78.369496639693c4.1632541097635 0 8.2261888433881 -0.42134137978329 12.208868076102 -1.0433215118443c-2.6584634676803 -6.9120050159688 -4.654819052844 -13.854105844779 -6.0492583811744 -20.575504046084 c-13.793914219096 -3.2804435997414 -24.116778023787 -15.629758802437 -24.116778023787 -30.416834845308c0 -17.285028508729 14.054744597057 -31.339773105786 31.339773105786 -31.339773105786s31.339773105786 14.064776534671 31.339773105786 31.339773105786c0 12.640241393499 -7.5540490232576 23.494797891726 -18.358445833415 28.440543135372 c1.1737367008249 5.3068949977467 2.8591022199581 11.055195250505 5.1764798087662 16.923878754629C205.74500852323 321.2264043733 225.03642455473 293.68873562318 225.03642455473 261.7069185101zM160.04953269197 282.75392362404c5.5376295628662 0 10.031937613888 4.4943080510218 10.031937613888 10.031937613888 c0 0.82261888433881 0.090287438524992 6.0091306307189 1.073417324686 13.342477026471c6.08938613163 -3.761976605208 10.202480553324 -10.433215118443 10.202480553324 -18.097615455454c0 -11.747398945863 -9.5604365460352 -21.307835491898 -21.307835491898 -21.307835491898s-21.307835491898 9.5604365460352 -21.307835491898 21.307835491898 c0 8.4769872837353 5.015968806944 15.760173991418 12.208868076102 19.191096655368c-0.62198013206105 -5.1564159335384 -0.93297019809158 -10.031937613888 -0.93297019809158 -14.425926288771C150.01759507808 287.24823167506 154.5119031291 282.75392362404 160.04953269197 282.75392362404zM306.23492760154 279.41328839861 c0.010031937613888 -5.5376295628662 4.4943080510218 -10.021905676274 10.031937613888 -10.021905676274h0.010031937613888c5.5376295628662 0 10.021905676274 4.4943080510218 10.021905676274 10.031937613888c0 3.129964535533 -0.14044712659443 6.5006955737994 -0.34108587887219 10.001841801046 c2.6183357172248 -2.5380802163137 4.2635734859024 -6.0793541940161 4.2635734859024 -10.001841801046c0 -7.6944961498521 -6.2599290710661 -13.954425220918 -13.954425220918 -13.954425220918s-13.964457158532 6.2599290710661 -13.964457158532 13.954425220918c0 3.5011462272469 1.344279640261 6.6712385132355 3.491114289633 9.1190312910242 C306.2048317887 283.05488175245 306.23492760154 279.59386327566 306.23492760154 279.41328839861zM384.51413680271 38.135156846993L270.32059094383 240.72010502185l2.5882399043831 65.5888081196l27.567764562964 15.549503301526 c2.3374414640359 -9.219350667163 3.7318807923663 -18.077551580226 4.5544996767051 -25.300546662225c-5.5877892509356 -3.671689166683 -9.2895742304603 -9.9617140505907 -9.2895742304603 -17.134549444521c0 -11.316025628466 9.2093187295492 -20.525344358015 20.525344358015 -20.525344358015 s20.525344358015 9.2093187295492 20.525344358015 20.525344358015c0 8.0656778415659 -4.7250426161412 14.987714795149 -11.496600505516 18.338381958187c-0.92293826047769 8.9284244763603 -2.4979524658581 18.528988772851 -4.9758410564884 28.189744695025l53.911632737034 -26.915688618061l114.07316260752 -202.4043732978 L384.51413680271 38.135156846993z"/><glyph unicode="&#xE008;" glyph-name="nfc1" horiz-adv-x="512" d="M460.8 448H51.2C23.04 448 0 424.96 0 396.8v-409.6c0 -28.16 23.04 -51.2 51.2 -51.2h409.6c28.16 0 51.2 23.04 51.2 51.2V396.8C512 424.96 488.96 448 460.8 448zM460.8 -12.8H51.2V396.8h409.6V-12.8zM409.6 345.6H281.6c-28.16 0 -51.2 -23.04 -51.2 -51.2v-58.88C215.04 227.84 204.8 209.92 204.8 192c0 -28.16 23.04 -51.2 51.2 -51.2 s51.2 23.04 51.2 51.2c0 17.92 -10.24 35.84 -25.6 43.52V294.4H358.4v-204.8H153.6V294.4h51.2v51.2h-51.2h-51.2v-307.2h307.2V345.6z"/><glyph unicode="&#xE009;" glyph-name="price3" horiz-adv-x="512" d="M489.89988572312 286.66768138736c20.905179182763 38.393784110923 15.171717318142 87.423232755184 -17.299345021949 119.90295404523c-32.48219527575 32.479721290048 -81.517828884266 38.209472176117 -119.90419103808 17.309240964758L328.57251508189 448 L185.59717037885 305.03455123977l7.1819804932026 -7.1881654574578c8.7702793139522 -8.7616203639948 8.7702793139522 -22.975905215423 0 -31.75236949363c-8.7678053282501 -8.7616203639948 -22.977142208274 -8.7616203639948 -31.75236949363 0l-7.1795065075005 7.1881654574578L0 119.42872191096 l28.379089988814 -28.369194046006c-12.314263832214 -35.488087903804 -4.4185384639545 -76.42636630934 23.929626703583 -104.77700546258c28.344454188984 -28.340743210431 69.287680565924 -36.237705571541 104.77576846973 -23.934574674987l26.349184720239 -26.349184720239 l153.85222284233 153.84727487093l-7.1856914717557 7.1894024503089c-8.7727532996543 8.7591463782927 -8.7727532996543 22.97219423687 -0.0061849642552554 31.744947536524c8.7789382639095 8.766568335399 22.982090179678 8.766568335399 31.754843479332 0l7.1795065075005 -7.1869284646068 l142.97163372448 142.97287071734L489.89988572312 286.66768138736z"/><glyph unicode="&#xE00A;" glyph-name="sim1" horiz-adv-x="512" d="M413.54278391028 384.22279967619l-59.574367652508 61.460687894C352.53283109 447.16740893889 350.55950568682 448 348.5064255521 448H103.92162360544c-4.2040410763301 0 -7.6032844070909 -3.4052853558776 -7.6032844070909 -7.6032844070909v-496.78859756572 c0 -4.1992074562366 3.3992433307608 -7.606909622161 7.6032844070909 -7.606909622161h304.15916959917c4.1992074562366 0 7.6020760020675 3.4077021659244 7.6020760020675 7.606909622161V378.92756886375C415.68166080165 380.89726905185 414.91432361181 382.80171536869 413.54278391028 384.22279967619zM364.97819442576 4.4404353090283c0 -4.1919570260964 -3.4052853558776 -7.6044928121143 -7.6044928121143 -7.6044928121143H154.608172311c-4.1871234060028 0 -7.6032844070909 3.4125357860179 -7.6032844070909 7.6044928121143V207.19992258655 c0 4.1919570260964 3.416161001088 7.6032844070909 7.6032844070909 7.6032844070909H357.37370161365c4.1931654311197 0 7.6044928121143 -3.4113273809945 7.6044928121143 -7.6032844070909V4.4404353090283L364.97819442576 4.4404353090283zM333.25877096713 199.27882765831H178.7424374379 c-9.9862591131912 0 -18.111574490381 -8.1156481370029 -18.111574490381 -18.107949275311v-154.51149990913c0 -9.9862591131912 8.1253153771899 -18.104324060241 18.111574490381 -18.104324060241h154.51754193425c9.9778002780276 0 18.105532465264 8.1192733520731 18.105532465264 18.104324060241 V181.170878383C351.36551183741 191.16317952131 343.23657124515 199.27882765831 333.25877096713 199.27882765831zM304.9772598 192.03323113814v-39.224827058832h-35.044954082969v39.224827058832H304.9772598zM228.22420633516 192.03323113814h34.727143561821 v-39.224827058832h-34.727143561821V192.03323113814zM167.8667922275 181.170878383c0 5.9973141310223 4.8783310793747 10.86235275514 10.867186375233 10.86235275514h42.245839617275v-46.470423579003h70.012570244442l0.0060420251168872 -41.645262320657H167.8667922275V181.170878383zM214.95350236843 15.801859338823h-36.212273335552c-5.9973141310223 0 -10.86960318528 4.8650386241176 -10.86960318528 10.856310730023V57.44349644441h47.080668115809V15.801859338823zM269.27735019436 15.801859338823h-47.078251305762V57.44349644441h47.078251305762V15.801859338823zM323.59998961527 15.801859338823h-47.083084925855V57.44349644441h47.083084925855V15.801859338823zM344.12233212729 26.659378473869c0 -5.9973141310223 -4.8771226743514 -10.856310730023 -10.863561160163 -10.856310730023h-2.4143932367081v48.890858840828h-54.327473041003h-3.6167562349687 h-50.702257970871h-3.6215898550622h-50.703466375894v31.991314588894h123.13163826207h7.2504301402647h45.854137017081v-70.024654294676H344.12233212729zM344.12233212729 103.91754523848h-45.867429472338v41.645262320657h45.854137017081v-41.645262320657H344.12233212729zM344.12233212729 152.80840407931h-32.149615646957v39.224827058832h21.292096511911c5.9864384858119 0 10.857519135046 -4.8650386241176 10.857519135046 -10.856310730023V152.80840407931L344.12233212729 152.80840407931z"/><glyph unicode="&#xE00B;" glyph-name="sticking" horiz-adv-x="512" d="M244.25509482646 -51.209049684837L257.0383898191 -64L257.0383898191 310.09264563589L244.25509482646 310.09264563589ZM364.29164557395 227.7388731895c-0.24168946816441 0.24278308566742 -0.35105121846505 0.54571513400018 -0.52931087145509 0.81037056972773c-0.23075329313435 0.3258980158959 -0.4965023463649 0.62554921171965 -0.65835773680984 0.98644298771175 c-0.14982559791187 0.35433207097407 -0.19685115054115 0.7206939344812 -0.28871502079368 1.0870557979883c-0.080927695222472 0.36636186350714 -0.20231923805618 0.7206939344812 -0.21872350060128 1.0990855905214c-0.01202979253307 0.37839165604021 0.091863870252536 0.74475351954734 0.14982559791187 1.1165834705695 c0.045931935126268 0.37182995102217 0.080927695222472 0.73819181452931 0.20231923805618 1.0990855905214c0.13232771786377 0.36526824600413 0.37511080353119 0.67694923436095 0.59383430413246 1.0148770427899c0.17279156547501 0.28324693327865 0.26574905323055 0.59711515664148 0.48447255383183 0.85083441733896l25.726258140722 29.325353343116 v45.649781810492c-3.1539928786704 -0.41229379863341 -6.3659474850001 -0.69444711440905 -9.6314893489772 -0.69444711440905H268.84617799906v-253.58912021462c63.363104506687 16.73672226601 112.51683679681 73.970100668346 122.75965832997 143.66853136995 c0.022965967563134 0.15529368542691 0.12685963034874 0.26574905323055 0.14435751039684 0.41448103363942c-0.28871502079368 0.20013200305017 -0.6168002716956 0.32371078088989 -0.87161314989609 0.5828981291024L364.29164557395 227.7388731895zM380.12832063498 447.33726779318H197.53028701052c20.663902719306 -13.261205841455 34.423798142132 -36.387935177531 34.423798142132 -62.714589327404s-13.760989040329 -49.453383485949 -34.423798142132 -62.717870179913h182.59912724197 c34.567062035026 0 62.70584038738 28.132216647336 62.70584038738 62.717870179913C442.83962910988 419.19848944082 414.70850608004 447.33726779318 380.12832063498 447.33726779318zM395.05401231601 410.75794955262H289.49148922082 c-3.263354628971 0 -5.9044408987314 2.6476479747784 -5.9044408987314 5.9055345162345s2.6410862697604 5.9055345162345 5.9044408987314 5.9055345162345h105.56142947769c3.263354628971 0 5.9055345162345 -2.6465543572754 5.9055345162345 -5.9055345162345S398.31736694498 410.75794955262 395.05401231601 410.75794955262zM94.978492901098 378.71605033204c2.9844821657044 -31.826456572492 29.853570597068 -56.812335663678 62.441184951652 -56.812335663678c32.598550529614 0 59.455609168445 24.992440796205 62.437904099143 56.817803751193 c-0.10717451529463 0 -0.19357029803213 -0.0054680875150319 -0.29418310830872 -0.0054680875150319H94.978492901098zM165.5507239876 310.56071392718c-2.6695203248386 -0.2919958733027 -5.3751300272764 -0.46806829128673 -8.1255780473374 -0.46806829128673c-41.097052145477 0 -74.528939212382 33.431887066905 -74.528939212382 74.528939212382c0 3.257886541456 2.6476479747784 5.9055345162345 5.9055345162345 5.9055345162345 h130.77806186201c0.10061281027659 0 0.19028944552311 0 0.29418310830872 -0.0054680875150319c-2.9812013131954 31.823175719983 -29.844821657044 56.814522898684 -62.437904099143 56.814522898684c-0.93941743508248 0 -1.8011880274515 0.26793628823656 -2.5864053946101 0.66273220682187 c-0.79834077719466 -0.38932783107027 -1.6458943420246 -0.66273220682187 -2.5864053946101 -0.66273220682187c-43.69548733262 0 -79.240243415333 -35.545849700216 -79.240243415333 -79.234775327818v-102.73770908493l29.26848523296 -29.26848523296 c2.3064393138405 -2.3064393138405 2.3064393138405 -6.0411430866072 0 -8.3508632529567l-32.36779723648 -32.365610001474c-0.21872350060128 -0.22528520561931 -0.51071937390398 -0.32042992838087 -0.75787692958342 -0.50415766888594 c14.640257512746 -83.329279259074 81.769780699787 -143.49683342198 160.77927082199 -143.49683342198c0.84427271232093 0 1.6721411620968 0.0514000226413 2.5109457869026 0.06342981517437V310.09264563589h-64.61201569512 C167.03366932168 310.09264563589 166.25501365954 310.25778187884 165.5507239876 310.56071392718z"/><glyph unicode="&#xE00C;" glyph-name="sticky" horiz-adv-x="512" d="M511.87604374321 375.18492991918L153.21652681409 446.56395357822l-0.86241906321955 0.16879149861178L34.80929053793 446.51648096923L0 446.56395357822v-509.29669865505h512V362.81567791153L511.87604374321 375.18492991918zM421.04379986916 257.53725538677C387.40286298569 287.75752705619 281.57454940685 359.98446425904 210.77047178996 407.42146878686l271.8518953501 -55.47569964921C477.18543472774 328.68682810238 461.5603529539 281.70081335991 421.04379986916 257.53725538677zM424.50666295787 228.9481953094c28.285762853302 13.581122220333 47.567554202531 35.008411758949 60.640983243446 56.807570067943v-321.63220060474H26.851035115101V419.6522590183l5.9340761230703 0.01450551941195l111.27183940906 -0.1476925612853 c89.435757959749 -59.007134284228 243.43162677134 -163.32687384422 264.53847619931 -187.32691505308l6.710780753401 -7.6312218942684L424.50666295787 228.9481953094z"/><glyph unicode="&#xE00D;" glyph-name="tag33" horiz-adv-x="512" d="M507.28687047413 117.88381008552L229.93466365215 395.23077427177c-3.0270978734559 3.0218552377208 -7.1215963825813 4.7225662701923 -11.384907762378 4.7225662701923h-101.5477571349c-7.3134768504866 9.2962416855074 -17.148661489564 17.262950948589 -28.703430649759 22.999442969953 c-27.836298699171 13.829024542089 -59.199842720928 11.54952652446 -76.283495527376 -5.522592483371C8.8600543923458 414.27097873456 6.2639011763164 410.67243356598 4.2958157213539 406.71843769455c-6.3005996264622 -12.692421114715 -5.6526098496019 -27.771290016056 1.8212916543792 -42.45067007438 c7.2107211900783 -14.158262066254 19.990170057997 -26.330613716046 36.00851928307 -34.27530390904c7.1866050656968 -3.5670893541728 14.604934630886 -6.0426619482945 21.945673187195 -7.4959205740686v-77.004882204528c0.006291162882139 -4.2664569612373 1.7017595596186 -8.37248926898 4.7225662701923 -11.388053343819 l277.34801271339 -277.3459156591c6.291162882139 -6.2964055178741 16.485992332645 -6.2964055178741 22.777155214784 0l138.36783642977 138.36154526688C513.57069366624 101.39047806285 513.57069366624 111.5863560405 507.28687047413 117.88381008552zM68.79386611619 395.23077427177 c-3.0208067105737 -3.0208067105737 -4.7173236344572 -7.1205478554343 -4.7173236344572 -11.383859235231v-50.407942593139c-5.7354434942167 1.3200956781022 -11.524361872932 3.348995707592 -17.169632032504 6.1600969887611c-13.963236016907 6.9318129689701 -25.05036206953 17.414987384908 -31.219895802615 29.531767095907 C9.7932435531964 380.71077033979 9.1641272649825 392.36514957895 13.917100822438 401.93400832268c1.446967462892 2.9065172515482 3.350044234739 5.565582096399 5.6861627183066 7.8954094170844C33.471083587273 423.69409220486 59.74507683738 425.12847734198 83.50994462466 413.32520724794 c7.2295946787247 -3.5912054785543 13.6665028343 -8.149152986664 19.078999967234 -13.377109341722H80.178773878567C75.909171335889 399.9543890691 71.822012516793 398.25262950949 68.79386611619 395.23077427177zM104.2256954684 359.79370228382 c4.3167862642944 4.3167862642944 9.6653232412595 6.9506864576166 15.26550673351 7.9331563943773c0.49280775910089 -5.9535371407975 -0.45925489039615 -11.639699859104 -2.9903994233101 -16.733444739343c-1.4417248271569 -2.9159539958714 -3.3563353976212 -5.5750188407222 -5.6924538811888 -7.9027491071136 c-3.9288312198958 -3.9351223827779 -8.8841705167273 -6.8290573085619 -14.483305481831 -8.7447164061732C94.680952849045 343.299321734 97.30331924375 352.87761722206 104.2256954684 359.79370228382zM144.72086241358 319.30482650152 c-11.18673613159 -11.183590550149 -29.311576395033 -11.183590550149 -40.495166945182 0c-1.5675480847996 1.5738392476818 -2.9002260886661 3.2871326059176 -4.0221501359809 5.0968904616796c6.9779481634392 2.4231462367705 13.213539106786 6.110816212851 18.199285690881 11.096562796946 c3.1550181853927 3.1613093482748 5.7511714014221 6.7588059897113 7.7192568563845 10.712801861136c3.2787443887414 6.606769553393 4.6323929355483 13.861528883646 4.1616042465349 21.363740620597c5.2866738752908 -1.0915167600511 10.331137979619 -3.6750876503162 14.43087912448 -7.7811199580589 C155.90445296373 348.619548478 155.90445296373 330.48841705167 144.72086241358 319.30482650152z"/><glyph unicode="&#xE00E;" glyph-name="watch16" horiz-adv-x="512" d="M426.66666666667 192c0 53.333333333333 -25.6 102.4 -64 134.4L341.33333333333 448H170.66666666667l-21.333333333333 -121.6C110.93333333333 294.4 85.333333333333 245.33333333333 85.333333333333 192s25.6 -102.4 64 -134.4 L170.66666666667 -64h170.66666666667l21.333333333333 121.6C401.06666666667 89.6 426.66666666667 138.66666666667 426.66666666667 192zM128 192c0 70.4 57.6 128 128 128c70.4 0 128 -57.6 128 -128 c0 -70.4 -57.6 -128 -128 -128C185.6 64 128 121.6 128 192z"/></font></defs></svg>
