Time : 20:02:03
SQLSTATE[42S22]: Column not found: 1054 Unknown column 'login_contrasena' in 'field list'
Raw SQL : SELECT login_contrasena FROM Login WHERE Usuarios_user_id = '1'

Time : 11:30:20
SQLSTATE[42S02]: Base table or view not found: 1146 Table 'inventario_cafes.yourls_url' doesn't exist
Raw SQL : SELECT COUNT(*) FROM yourls_url WHERE keyword = '1SmMYZa'

Time : 11:11:19
SQLSTATE[42S22]: Column not found: 1054 Unknown column 'yourls_url_keyword' in 'field list'
Raw SQL : SELECT yourls_url_keyword FROM Usuarios WHERE user_id = '1'

Time : 10:41:33
SQLSTATE[28000] [1045] Access denied for user 'root'@'localhost' (using password: YES)

Time : 09:40:42
SQLSTATE[28000] [1045] Access denied for user 'root'@'localhost' (using password: YES)
