Time : 12:06:59
SQLSTATE[42S02]: Base table or view not found: 1146 Table 'nfconnec_IDBandBD.Registros' doesn't exist
Raw SQL : SELECT registro_hora FROM Registros R, Usuarios U WHERE R.registro_acceso = 'Entrada' AND U.user_carrera = 'ACTUACIÓN (D)' AND R.Usuarios_user_id = U.user_id AND R.registro_fecha = STR_TO_DATE('20-04-2016','%d-%m-%Y')

Time : 12:06:59
SQLSTATE[42S22]: Column not found: 1054 Unknown column 'U.user_carrera' in 'where clause'
Raw SQL : SELECT COUNT(user_id) as count_UsuariosCarrera FROM Usuarios U WHERE U.user_carrera = 'ACTUACIÓN (D)'
