Time : 13:02:23
SQLSTATE[42S02]: Base table or view not found: 1146 Table 'inventario_cafes.Paises' doesn't exist
Raw SQL : SELECT pais_nombre FROM Paises

Time : 12:59:26
SQLSTATE[42S02]: Base table or view not found: 1146 Table 'inventario_cafes.Paises' doesn't exist
Raw SQL : SELECT pais_nombre FROM Paises

Time : 12:59:22
SQLSTATE[42S02]: Base table or view not found: 1146 Table 'inventario_cafes.Paises' doesn't exist
Raw SQL : SELECT pais_nombre FROM Paises

Time : 12:57:52
SQLSTATE[42S02]: Base table or view not found: 1146 Table 'inventario_cafes.Paises' doesn't exist
Raw SQL : SELECT pais_nombre FROM Paises
