Time : 11:08:09
SQLSTATE[42S22]: Column not found: 1054 Unknown column 'K.key_string' in 'where clause'
Raw SQL : SELECT COUNT(key_id) FROM `Keys` K, Tag T, yourls_url YU WHERE YU.keyword = K.yourls_url_keyword AND YU.keyword = T.yourls_url_keyword AND `K.key_string` = 'p7lkVg73WW' AND YU.keyword = '169357'

Time : 11:07:30
SQLSTATE[42S22]: Column not found: 1054 Unknown column 'K.key_string' in 'where clause'
Raw SQL : SELECT COUNT(key_id) FROM `Keys` K, Tag T, yourls_url YU WHERE YU.keyword = K.yourls_url_keyword AND YU.keyword = T.yourls_url_keyword AND `K.key_string` = 'p7lkVg73WW' AND YU.keyword = '169357'

Time : 11:07:30
SQLSTATE[42S22]: Column not found: 1054 Unknown column 'K.key_string' in 'where clause'
Raw SQL : SELECT COUNT(key_id) FROM `Keys` K, Tag T, yourls_url YU WHERE YU.keyword = K.yourls_url_keyword AND YU.keyword = T.yourls_url_keyword AND `K.key_string` = 'p7lkVg73WW' AND YU.keyword = '169357'

Time : 11:07:30
SQLSTATE[42S22]: Column not found: 1054 Unknown column 'K.key_string' in 'where clause'
Raw SQL : SELECT COUNT(key_id) FROM `Keys` K, Tag T, yourls_url YU WHERE YU.keyword = K.yourls_url_keyword AND YU.keyword = T.yourls_url_keyword AND `K.key_string` = 'p7lkVg73WW' AND YU.keyword = '169357'

Time : 11:07:30
SQLSTATE[42S22]: Column not found: 1054 Unknown column 'K.key_string' in 'where clause'
Raw SQL : SELECT COUNT(key_id) FROM `Keys` K, Tag T, yourls_url YU WHERE YU.keyword = K.yourls_url_keyword AND YU.keyword = T.yourls_url_keyword AND `K.key_string` = 'p7lkVg73WW' AND YU.keyword = '169357'

Time : 11:07:28
SQLSTATE[42S22]: Column not found: 1054 Unknown column 'K.key_string' in 'where clause'
Raw SQL : SELECT COUNT(key_id) FROM `Keys` K, Tag T, yourls_url YU WHERE YU.keyword = K.yourls_url_keyword AND YU.keyword = T.yourls_url_keyword AND `K.key_string` = 'p7lkVg73WW' AND YU.keyword = '169357'

Time : 11:03:58
SQLSTATE[42S22]: Column not found: 1054 Unknown column 'key_id' in 'field list'
Raw SQL : SELECT COUNT(key_id) FROM Tag WHERE tag_estado = 'Deshabilitado' AND yourls_url_keyword = '169357'

Time : 11:03:42
SQLSTATE[42S22]: Column not found: 1054 Unknown column 'key_id' in 'field list'
Raw SQL : SELECT COUNT(key_id) FROM Tag WHERE tag_estado = 'Deshabilitado' AND yourls_url_keyword = '169357'

Time : 10:47:43
SQLSTATE[42000]: Syntax error or access violation: 1064 You have an error in your SQL syntax; check the manual that corresponds to your MySQL server version for the right syntax to use near 'K.yourls_url_keyword = T.yourls_url_keyword AND T.tag_estado = 'Deshabilitado'' at line 1
Raw SQL : SELECT COUNT(key_id) FROM `Keys` K, `Tag` T WHERE K.key_string = 'ZpbgOMsX' AND K.yourls_url_keyword = '169357' K.yourls_url_keyword = T.yourls_url_keyword AND T.tag_estado = 'Deshabilitado'

Time : 10:47:18
SQLSTATE[42000]: Syntax error or access violation: 1064 You have an error in your SQL syntax; check the manual that corresponds to your MySQL server version for the right syntax to use near 'K.yourls_url_keyword = T.yourls_url_keyword AND T.tag_estado = 'Deshabilitado'' at line 1
Raw SQL : SELECT COUNT(key_id) FROM `Keys` K, `Tag` T WHERE K.key_string = 'ZpbgOMsX' AND K.yourls_url_keyword = '169357' K.yourls_url_keyword = T.yourls_url_keyword AND T.tag_estado = 'Deshabilitado'

Time : 10:41:25
SQLSTATE[42S22]: Column not found: 1054 Unknown column 'K.key_string' in 'where clause'
Raw SQL : SELECT COUNT(key_id) FROM `Keys` K, `Tag` T WHERE `K.key_string` = 'p7lkVg73WW' AND K.yourls_url_keyword = '1SmMYZa' AND T.tag_estado = 'Deshabilitado'

Time : 10:41:25
SQLSTATE[42S22]: Column not found: 1054 Unknown column 'K.key_string' in 'where clause'
Raw SQL : SELECT COUNT(key_id) FROM `Keys` K, `Tag` T WHERE `K.key_string` = 'p7lkVg73WW' AND K.yourls_url_keyword = '1SmMYZa' AND T.tag_estado = 'Deshabilitado'

Time : 10:41:17
SQLSTATE[42S22]: Column not found: 1054 Unknown column 'K.key_string' in 'where clause'
Raw SQL : SELECT COUNT(key_id) FROM `Keys` K, `Tag` T WHERE `K.key_string` = 'p7lkVg73WW' AND K.yourls_url_keyword = '1SmMYZa' AND T.tag_estado = 'Deshabilitado'

Time : 10:38:34
SQLSTATE[42S22]: Column not found: 1054 Unknown column 'K.key_string' in 'where clause'
Raw SQL : SELECT COUNT(key_id) FROM `Keys` K, Tag T WHERE `K.key_string` = 'p7lkVg73WW' AND K.yourls_url_keyword = '1SmMYZa' AND T.tag_estado = 'Deshabilitado'

Time : 10:38:26
SQLSTATE[42S22]: Column not found: 1054 Unknown column 'K.key_string' in 'where clause'
Raw SQL : SELECT COUNT(key_id) FROM `Keys` K, Tag T WHERE `K.key_string` = 'p7lkVg73WW' AND K.yourls_url_keyword = '1SmMYZa' AND T.tag_estado = 'Deshabilitado'

Time : 10:38:23
SQLSTATE[42S22]: Column not found: 1054 Unknown column 'K.key_string' in 'where clause'
Raw SQL : SELECT COUNT(key_id) FROM `Keys` K, Tag T WHERE `K.key_string` = 'p7lkVg73WW' AND K.yourls_url_keyword = '1SmMYZa' AND T.tag_estado = 'Deshabilitado'
